%YAML 1.1
%TAG !u! tag:unity3d.com,2011:
--- !u!74 &7400000
AnimationClip:
  m_ObjectHideFlags: 0
  m_CorrespondingSourceObject: {fileID: 0}
  m_PrefabInstance: {fileID: 0}
  m_PrefabAsset: {fileID: 0}
  m_Name: Jump
  serializedVersion: 6
  m_Legacy: 0
  m_Compressed: 0
  m_UseHighQualityCurve: 1
  m_RotationCurves: []
  m_CompressedRotationCurves: []
  m_EulerCurves: []
  m_PositionCurves: []
  m_ScaleCurves: []
  m_FloatCurves: []
  m_PPtrCurves:
  - curve:
    - time: 0
      value: {fileID: 8892925614505049818, guid: d61da6e4ca7e84ed98f1fc67e49a3982,
        type: 3}
    - time: 0.083333336
      value: {fileID: -401782473425076620, guid: d61da6e4ca7e84ed98f1fc67e49a3982,
        type: 3}
    - time: 0.16666667
      value: {fileID: -754236023567093852, guid: d61da6e4ca7e84ed98f1fc67e49a3982,
        type: 3}
    - time: 0.25
      value: {fileID: 2347732366822899564, guid: d61da6e4ca7e84ed98f1fc67e49a3982,
        type: 3}
    - time: 0.33333334
      value: {fileID: -1365720675384079135, guid: d61da6e4ca7e84ed98f1fc67e49a3982,
        type: 3}
    - time: 0.41666666
      value: {fileID: -930136594105454319, guid: d61da6e4ca7e84ed98f1fc67e49a3982,
        type: 3}
    - time: 0.5
      value: {fileID: -6733441765540493802, guid: d61da6e4ca7e84ed98f1fc67e49a3982,
        type: 3}
    - time: 0.5833333
      value: {fileID: -4924357953119016283, guid: d61da6e4ca7e84ed98f1fc67e49a3982,
        type: 3}
    - time: 0.6666667
      value: {fileID: -8262336468771576383, guid: d61da6e4ca7e84ed98f1fc67e49a3982,
        type: 3}
    - time: 0.75
      value: {fileID: -2975565058558984160, guid: d61da6e4ca7e84ed98f1fc67e49a3982,
        type: 3}
    - time: 0.8333333
      value: {fileID: -7068911877802637343, guid: d61da6e4ca7e84ed98f1fc67e49a3982,
        type: 3}
    - time: 0.9166667
      value: {fileID: -7302602295523751714, guid: d61da6e4ca7e84ed98f1fc67e49a3982,
        type: 3}
    - time: 1
      value: {fileID: 4863047662847315527, guid: d61da6e4ca7e84ed98f1fc67e49a3982,
        type: 3}
    - time: 1.1
      value: {fileID: -419656880115030407, guid: d61da6e4ca7e84ed98f1fc67e49a3982,
        type: 3}
    - time: 1.1833333
      value: {fileID: 1975898193003064904, guid: d61da6e4ca7e84ed98f1fc67e49a3982,
        type: 3}
    - time: 1.25
      value: {fileID: -994110067344647593, guid: d61da6e4ca7e84ed98f1fc67e49a3982,
        type: 3}
    attribute: m_Sprite
    path: 
    classID: 212
    script: {fileID: 0}
  m_SampleRate: 60
  m_WrapMode: 0
  m_Bounds:
    m_Center: {x: 0, y: 0, z: 0}
    m_Extent: {x: 0, y: 0, z: 0}
  m_ClipBindingConstant:
    genericBindings:
    - serializedVersion: 2
      path: 0
      attribute: 0
      script: {fileID: 0}
      typeID: 212
      customType: 23
      isPPtrCurve: 1
    pptrCurveMapping:
    - {fileID: 8892925614505049818, guid: d61da6e4ca7e84ed98f1fc67e49a3982, type: 3}
    - {fileID: -401782473425076620, guid: d61da6e4ca7e84ed98f1fc67e49a3982, type: 3}
    - {fileID: -754236023567093852, guid: d61da6e4ca7e84ed98f1fc67e49a3982, type: 3}
    - {fileID: 2347732366822899564, guid: d61da6e4ca7e84ed98f1fc67e49a3982, type: 3}
    - {fileID: -1365720675384079135, guid: d61da6e4ca7e84ed98f1fc67e49a3982, type: 3}
    - {fileID: -930136594105454319, guid: d61da6e4ca7e84ed98f1fc67e49a3982, type: 3}
    - {fileID: -6733441765540493802, guid: d61da6e4ca7e84ed98f1fc67e49a3982, type: 3}
    - {fileID: -4924357953119016283, guid: d61da6e4ca7e84ed98f1fc67e49a3982, type: 3}
    - {fileID: -8262336468771576383, guid: d61da6e4ca7e84ed98f1fc67e49a3982, type: 3}
    - {fileID: -2975565058558984160, guid: d61da6e4ca7e84ed98f1fc67e49a3982, type: 3}
    - {fileID: -7068911877802637343, guid: d61da6e4ca7e84ed98f1fc67e49a3982, type: 3}
    - {fileID: -7302602295523751714, guid: d61da6e4ca7e84ed98f1fc67e49a3982, type: 3}
    - {fileID: 4863047662847315527, guid: d61da6e4ca7e84ed98f1fc67e49a3982, type: 3}
    - {fileID: -419656880115030407, guid: d61da6e4ca7e84ed98f1fc67e49a3982, type: 3}
    - {fileID: 1975898193003064904, guid: d61da6e4ca7e84ed98f1fc67e49a3982, type: 3}
    - {fileID: -994110067344647593, guid: d61da6e4ca7e84ed98f1fc67e49a3982, type: 3}
  m_AnimationClipSettings:
    serializedVersion: 2
    m_AdditiveReferencePoseClip: {fileID: 0}
    m_AdditiveReferencePoseTime: 0
    m_StartTime: 0
    m_StopTime: 1.2666667
    m_OrientationOffsetY: 0
    m_Level: 0
    m_CycleOffset: 0
    m_HasAdditiveReferencePose: 0
    m_LoopTime: 0
    m_LoopBlend: 0
    m_LoopBlendOrientation: 0
    m_LoopBlendPositionY: 0
    m_LoopBlendPositionXZ: 0
    m_KeepOriginalOrientation: 0
    m_KeepOriginalPositionY: 1
    m_KeepOriginalPositionXZ: 0
    m_HeightFromFeet: 0
    m_Mirror: 0
  m_EditorCurves: []
  m_EulerEditorCurves: []
  m_HasGenericRootTransform: 0
  m_HasMotionFloatCurves: 0
  m_Events: []
